<?xml version="1.0" encoding="utf-8"?>
<!-- Generator: Adobe Illustrator 23.0.0, SVG Export Plug-In . SVG Version: 6.00 Build 0)  -->
<svg version="1.1" id="Layer_1" xmlns="http://www.w3.org/2000/svg" xmlns:xlink="http://www.w3.org/1999/xlink" x="0px" y="0px"
	 viewBox="0 0 24 24" style="enable-background:new 0 0 24 24;" xml:space="preserve">
<style type="text/css">
	.st0{fill:#FFFFFF;}
</style>
<title>A1EF5D91-6EBA-4A93-B76C-3C225940004A</title>
<desc>Created with sketchtool.</desc>
<g id="Page-1">
	<g id="Candidate-Dashboard" transform="translate(-57.000000, -145.000000)">
		<g id="professional-profile-icon" transform="translate(57.000000, 145.000000)">
			<ellipse id="Oval" class="st0" cx="14.8" cy="7.5" rx="4.5" ry="4.5"/>
			<path id="Shape" class="st0" d="M16.3,11.2c-2.5,0-4.5-2-4.5-4.5c0-1.5,0.7-2.8,1.8-3.6c-1.9,0.5-3.3,2.3-3.3,4.3
				c0,2.5,2,4.5,4.5,4.5c1,0,2-0.3,2.8-0.9C17.1,11.2,16.7,11.2,16.3,11.2z"/>
			<path class="st0" d="M15.1,0.4L15.1,0.4L9,0.4l2,1.5c0,0,0,0-0.1,0L9.1,2.2V9l3.8-3.8l1.9,1.1l1.9-1.1L20.4,9V6
				C20.4,3,18.1,0.6,15.1,0.4z"/>
			<path class="st0" d="M9.1,2.2V9l1.5-1.5V2.2l1.8-0.4c0,0,0,0,0.1,0l-2-1.5H9l2,1.5c0,0,0,0-0.1,0L9.1,2.2z"/>
			<path class="st0" d="M22.1,23.6H9.5V12.4h9.9c0.7,0,1.2,0.4,1.4,1l2.8,8.3C23.9,22.6,23.2,23.6,22.1,23.6z"/>
			<polygon points="15.9,21.4 14.8,22.1 13.6,21.4 14,14.3 15.5,14.3 			"/>
			<polygon class="st0" points="15.5,14.3 14,14.3 13.6,12.4 15.9,12.4 			"/>
			<g id="Group" transform="translate(8.692913, 7.078125)">
				<path class="st0" d="M11.7,2.3h-1.1V0h1.1c0.2,0,0.4,0.2,0.4,0.4v1.5C12.1,2.1,12,2.3,11.7,2.3z"/>
				<path class="st0" d="M0.4,2.3h1.1V0H0.4C0.2,0,0,0.2,0,0.4v1.5C0,2.1,0.2,2.3,0.4,2.3z"/>
			</g>
			<path class="st0" d="M20.1,23.6h-2.7c-0.2,0-0.4-0.2-0.4-0.4v-1.5c0-0.4,0.3-0.8,0.8-0.8h1.9c0.4,0,0.8,0.3,0.8,0.8v1.5
				C20.4,23.5,20.3,23.6,20.1,23.6z"/>
			<path class="st0" d="M18.2,23.3v-1.5c0-0.4,0.3-0.8,0.8-0.8h-1.1c-0.4,0-0.8,0.3-0.8,0.8v1.5c0,0.2,0.2,0.4,0.4,0.4h1.1
				C18.3,23.6,18.2,23.5,18.2,23.3z"/>
			<rect id="Rectangle-path" x="0.4" y="12.4" class="st0" width="11.4" height="9"/>
			<rect x="0.4" y="12.4" class="st0" width="1.5" height="9"/>
			<rect x="4.9" y="21.4" class="st0" width="2.3" height="2.3"/>
			<rect x="4.9" y="21.4" class="st0" width="2.3" height="1"/>
			<ellipse cx="12.8" cy="7.9" rx="1" ry="1"/>
			<ellipse cx="16.7" cy="7.9" rx="1" ry="1"/>
			<path class="st0" d="M14,10.5h1.5c0.2,0,0.4-0.2,0.4-0.4s-0.2-0.4-0.4-0.4H14c-0.2,0-0.4,0.2-0.4,0.4S13.8,10.5,14,10.5z"/>
			<path d="M23.9,21.6l-2.8-8.3c-0.3-0.8-1-1.3-1.8-1.3h-2.8c0.6-0.2,1.1-0.5,1.5-0.9c0.4-0.4,0.8-0.9,1.1-1.4c0.1,0,0.1,0,0.2,0
				h1.1c0.4,0,0.7-0.3,0.7-0.7V7.5c0-0.3-0.2-0.5-0.4-0.6V6c0-3.1-2.4-5.7-5.5-6c0,0-0.1,0-0.1,0H9C8.8,0,8.7,0.1,8.6,0.2
				c-0.1,0.1,0,0.3,0.1,0.4l1.4,1L9,1.9c-0.2,0-0.3,0.2-0.3,0.3v4.6C8.5,7,8.3,7.2,8.3,7.5V9c0,0.4,0.3,0.7,0.7,0.7h0.8v1.2
				c0,0.2,0.2,0.4,0.4,0.4h1.4c0.4,0.3,0.9,0.6,1.4,0.8H3.2c-0.2,0-0.4,0.2-0.4,0.4c0,0.2,0.2,0.4,0.4,0.4h8.1h0V21H0.7v-8.3h0.8
				c0.2,0,0.4-0.2,0.4-0.4c0-0.2-0.2-0.4-0.4-0.4H0.4C0.2,12,0,12.2,0,12.4v9c0,0.2,0.2,0.4,0.4,0.4h4.2v1.5H4.2
				c-0.2,0-0.4,0.2-0.4,0.4S4,24,4.2,24h3.8c0.2,0,0.4-0.2,0.4-0.4c0-0.2-0.2-0.4-0.4-0.4H7.5v-1.5h1.6v1.9c0,0.2,0.2,0.4,0.4,0.4
				h12.7c0.6,0,1.2-0.3,1.5-0.8C24,22.7,24.1,22.1,23.9,21.6z M14.3,14.6h0.8l0.4,6.6l-0.8,0.5L14,21.2L14.3,14.6z M15.2,13.9h-0.9
				l-0.2-1.2h1.4L15.2,13.9z M10.6,7c0.1-1.8,1.6-3.3,3.4-3.3h1.5c1.9,0,3.4,1.5,3.4,3.3l-2-2c-0.1-0.1-0.3-0.1-0.4-0.1l-1.7,1
				l-1.7-1c-0.1-0.1-0.3-0.1-0.4,0.1L10.6,7z M20.5,9C20.5,9,20.4,9,20.5,9l-0.8,0V7.5h0.8c0,0,0,0,0,0V9z M10.9,2.2
				c0.1,0,0.3-0.2,0.3-0.3c0-0.1,0-0.3-0.1-0.4L10,0.7h5c0,0,0,0,0.1,0c2.8,0.2,5,2.5,5,5.3v0.8h-0.4c-0.2-2.1-2-3.8-4.1-3.8H14
				c-2.2,0-3.9,1.7-4.1,3.8H9.4V2.5L10.9,2.2z M9,9V7.5c0,0,0,0,0,0h0.8V9L9,9C9.1,9,9,9,9,9z M10.6,10c0.1,0.2,0.2,0.3,0.4,0.5
				h-0.4V10z M13.2,10.5h-1.3C11.2,9.9,10.7,9,10.6,8c0,0,0,0,0,0l2.3-2.3l1.7,1c0.1,0.1,0.3,0.1,0.4,0l1.7-1L18.9,8c0,0,0,0,0,0
				c-0.2,2.1-2,3.7-4.2,3.7c-0.6,0-1.3-0.2-1.8-0.4h0.3c0.2,0,0.4-0.2,0.4-0.4S13.4,10.5,13.2,10.5z M6.8,23.3H5.3v-1.5h1.6V23.3z
				 M19.7,23.3v-0.4c0-0.2-0.2-0.4-0.4-0.4c-0.2,0-0.4,0.2-0.4,0.4v0.4h-0.4v-0.4c0-0.2-0.2-0.4-0.4-0.4c-0.2,0-0.4,0.2-0.4,0.4v0.4
				h-0.4c0,0,0,0,0,0v-1.5c0-0.2,0.2-0.4,0.4-0.4h1.9c0,0,0,0,0,0c0,0,0,0,0,0c0.2,0,0.4,0.2,0.4,0.4v1.5c0,0,0,0,0,0H19.7z
				 M23.1,22.8c-0.2,0.3-0.6,0.5-0.9,0.5h-1.3c0,0,0,0,0,0v-1.5c0-0.5-0.4-1-0.9-1.1l-1.4-3.9c-0.1-0.2-0.3-0.3-0.5-0.2
				c-0.2,0.1-0.3,0.3-0.2,0.5l1.3,3.7h-1.4c-0.6,0-1.1,0.5-1.1,1.1v1.5c0,0,0,0,0,0H9.8v-1.5h1.9c0.2,0,0.4-0.2,0.4-0.4v-8.7h1.2
				l0.3,1.6l-0.4,7.1c0,0.1,0.1,0.2,0.2,0.3l1.1,0.8c0.1,0.1,0.3,0.1,0.4,0l1.1-0.8c0.1-0.1,0.2-0.2,0.2-0.3l-0.4-7.1l0.3-1.6h3.2
				c0.5,0,0.9,0.3,1.1,0.8l2.8,8.3C23.3,22.1,23.3,22.5,23.1,22.8z"/>
		</g>
	</g>
</g>
</svg>
