<?xml version="1.0" encoding="utf-8"?>
<!-- Generator: Adobe Illustrator 23.0.0, SVG Export Plug-In . SVG Version: 6.00 Build 0)  -->
<svg version="1.1" id="Layer_1" xmlns="http://www.w3.org/2000/svg" xmlns:xlink="http://www.w3.org/1999/xlink" x="0px" y="0px"
	 viewBox="0 0 22 20" style="enable-background:new 0 0 22 20;" xml:space="preserve">
<style type="text/css">
	.st0{stroke:#FFFFFF;stroke-miterlimit:10;}
</style>
<title>C6C24F99-65EB-4FEE-AFC2-2B90F53A1483</title>
<desc>Created with sketchtool.</desc>
<path class="st0" d="M21.6,12.8c-0.1,0-0.2,0-0.3,0.1c-0.1,0.1-0.1,0.2-0.1,0.3s0,0.2,0.1,0.3c0.1,0.1,0.2,0.1,0.3,0.1
	s0.2,0,0.3-0.1c0.1-0.1,0.1-0.2,0.1-0.3s0-0.2-0.1-0.3C21.8,12.8,21.7,12.8,21.6,12.8z"/>
<path class="st0" d="M19.9,3.8h-3.9V2.2c0-1.2-1-2.2-2.2-2.2H8.3C7.1,0,6.1,1,6.1,2.2v1.6H2.1C1,3.8,0,4.8,0,5.9v11.9
	C0,19,1,20,2.1,20h17.7c1.2,0,2.1-1,2.1-2.1V15c0-0.2-0.2-0.4-0.4-0.4s-0.4,0.2-0.4,0.4v2.9c0,0.7-0.6,1.3-1.3,1.3H2.1
	c-0.7,0-1.2-0.5-1.3-1.2h5.7C6.8,18,7,17.8,7,17.5c0-0.2-0.2-0.4-0.4-0.4H0.9v-6.9c0.4,0.3,0.9,0.5,1.4,0.5h1.4v0.7
	c0,1,0.8,1.7,1.8,1.7h0.1c1,0,1.8-0.8,1.8-1.7v-0.7h7.3v0.7c0,1,0.8,1.7,1.8,1.7h0.1c1,0,1.8-0.8,1.8-1.7v-0.7h1.4
	c0.5,0,1-0.2,1.4-0.5v1.3c0,0.2,0.2,0.4,0.4,0.4c0.2,0,0.4-0.2,0.4-0.4V5.9C22,4.8,21,3.8,19.9,3.8z M7,2.2c0-0.7,0.6-1.4,1.4-1.4
	h5.3c0.8,0,1.4,0.6,1.4,1.4v1.6h-0.9V2.1c0-0.2-0.2-0.4-0.4-0.4H8.2C8,1.7,7.8,1.9,7.8,2.1v1.7H7V2.2z M8.7,3.8V2.5h4.7v1.3
	C13.3,3.8,8.7,3.8,8.7,3.8z M6.5,11.4c0,0.5-0.4,0.9-0.9,0.9H5.5c-0.5,0-0.9-0.4-0.9-0.9V9.9h1.9V11.4z M17.4,11.4
	c0,0.5-0.4,0.9-0.9,0.9h-0.1c-0.5,0-0.9-0.4-0.9-0.9V9.9h1.9V11.4z M19.7,9.9h-1.4V9.6C18.3,9.3,18,9,17.7,9h-2.5
	c-0.3,0-0.6,0.2-0.6,0.6v0.3H7.4V9.6C7.4,9.3,7.1,9,6.8,9H4.3C4,9,3.7,9.3,3.7,9.6v0.3H2.3c-0.8,0-1.4-0.6-1.4-1.4V5.9
	c0-0.7,0.6-1.3,1.3-1.3h17.7c0.7,0,1.3,0.6,1.3,1.3v2.6C21.1,9.3,20.5,9.9,19.7,9.9z"/>
<path class="st0" d="M8.2,17.1c-0.2,0-0.4,0.2-0.4,0.4C7.8,17.8,8,18,8.2,18h0c0.2,0,0.4-0.2,0.4-0.4C8.7,17.3,8.5,17.1,8.2,17.1
	L8.2,17.1z"/>
</svg>
